%YAML 1.1
%TAG !u! tag:unity3d.com,2011:
--- !u!1001 &3862736841279173302
PrefabInstance:
  m_ObjectHideFlags: 0
  serializedVersion: 2
  m_Modification:
    m_TransformParent: {fileID: 0}
    m_Modifications:
    - target: {fileID: 1955414220813369418, guid: 95666f2dea939dd44954ef670a06ef0a,
        type: 3}
      propertyPath: m_Name
      value: Invalid Guidelines
      objectReference: {fileID: 0}
    - target: {fileID: 1955414220813369408, guid: 95666f2dea939dd44954ef670a06ef0a,
        type: 3}
      propertyPath: m_LocalPosition.x
      value: 0
      objectReference: {fileID: 0}
    - target: {fileID: 1955414220813369408, guid: 95666f2dea939dd44954ef670a06ef0a,
        type: 3}
      propertyPath: m_LocalPosition.y
      value: 0
      objectReference: {fileID: 0}
    - target: {fileID: 1955414220813369408, guid: 95666f2dea939dd44954ef670a06ef0a,
        type: 3}
      propertyPath: m_LocalPosition.z
      value: 0
      objectReference: {fileID: 0}
    - target: {fileID: 1955414220813369408, guid: 95666f2dea939dd44954ef670a06ef0a,
        type: 3}
      propertyPath: m_LocalRotation.x
      value: 0
      objectReference: {fileID: 0}
    - target: {fileID: 1955414220813369408, guid: 95666f2dea939dd44954ef670a06ef0a,
        type: 3}
      propertyPath: m_LocalRotation.y
      value: 0
      objectReference: {fileID: 0}
    - target: {fileID: 1955414220813369408, guid: 95666f2dea939dd44954ef670a06ef0a,
        type: 3}
      propertyPath: m_LocalRotation.z
      value: 0
      objectReference: {fileID: 0}
    - target: {fileID: 1955414220813369408, guid: 95666f2dea939dd44954ef670a06ef0a,
        type: 3}
      propertyPath: m_LocalRotation.w
      value: 1
      objectReference: {fileID: 0}
    - target: {fileID: 1955414220813369408, guid: 95666f2dea939dd44954ef670a06ef0a,
        type: 3}
      propertyPath: m_RootOrder
      value: 0
      objectReference: {fileID: 0}
    - target: {fileID: 1955414220813369408, guid: 95666f2dea939dd44954ef670a06ef0a,
        type: 3}
      propertyPath: m_LocalEulerAnglesHint.x
      value: 0
      objectReference: {fileID: 0}
    - target: {fileID: 1955414220813369408, guid: 95666f2dea939dd44954ef670a06ef0a,
        type: 3}
      propertyPath: m_LocalEulerAnglesHint.y
      value: 0
      objectReference: {fileID: 0}
    - target: {fileID: 1955414220813369408, guid: 95666f2dea939dd44954ef670a06ef0a,
        type: 3}
      propertyPath: m_LocalEulerAnglesHint.z
      value: 0
      objectReference: {fileID: 0}
    - target: {fileID: 1955414220813369412, guid: 95666f2dea939dd44954ef670a06ef0a,
        type: 3}
      propertyPath: node.rendererColor.value.r
      value: 1
      objectReference: {fileID: 0}
    - target: {fileID: 1955414220813369412, guid: 95666f2dea939dd44954ef670a06ef0a,
        type: 3}
      propertyPath: node.rendererColor.value.g
      value: 0.51099217
      objectReference: {fileID: 0}
    - target: {fileID: 1955414220813369412, guid: 95666f2dea939dd44954ef670a06ef0a,
        type: 3}
      propertyPath: node.rendererColor.value.b
      value: 0.05098039
      objectReference: {fileID: 0}
    - target: {fileID: 1955414220813369419, guid: 95666f2dea939dd44954ef670a06ef0a,
        type: 3}
      propertyPath: node.rendererColor.value.r
      value: 1
      objectReference: {fileID: 0}
    - target: {fileID: 1955414220813369419, guid: 95666f2dea939dd44954ef670a06ef0a,
        type: 3}
      propertyPath: node.rendererColor.value.g
      value: 0.50980395
      objectReference: {fileID: 0}
    - target: {fileID: 1955414220813369419, guid: 95666f2dea939dd44954ef670a06ef0a,
        type: 3}
      propertyPath: node.rendererColor.value.b
      value: 0.050980397
      objectReference: {fileID: 0}
    m_RemovedComponents: []
  m_SourcePrefab: {fileID: 100100000, guid: 95666f2dea939dd44954ef670a06ef0a, type: 3}
