<?xml version="1.0" encoding="utf-8"?>
<COLLADA xmlns="http://www.collada.org/2005/11/COLLADASchema" version="1.4.1" xmlns:xsi="http://www.w3.org/2001/XMLSchema-instance">
  <asset>
    <contributor>
      <author>Blender User</author>
      <authoring_tool>Blender 2.80.75 commit date:2019-07-24, commit time:14:22, hash:507ffee6e1f4</authoring_tool>
    </contributor>
    <created>2019-08-09T15:24:35</created>
    <modified>2019-08-09T15:24:35</modified>
    <unit name="meter" meter="1"/>
    <up_axis>Z_UP</up_axis>
  </asset>
  <library_cameras>
    <camera id="Camera-camera" name="Camera">
      <optics>
        <technique_common>
          <perspective>
            <xfov sid="xfov">39.59775</xfov>
            <aspect_ratio>1.777778</aspect_ratio>
            <znear sid="znear">0.1</znear>
            <zfar sid="zfar">100</zfar>
          </perspective>
        </technique_common>
      </optics>
      <extra>
        <technique profile="blender">
          <shiftx sid="shiftx" type="float">0</shiftx>
          <shifty sid="shifty" type="float">0</shifty>
          <dof_distance sid="dof_distance" type="float">10</dof_distance>
        </technique>
      </extra>
    </camera>
  </library_cameras>
  <library_lights>
    <light id="Light-light" name="Light">
      <technique_common>
        <point>
          <color sid="color">1000 1000 1000</color>
          <constant_attenuation>1</constant_attenuation>
          <linear_attenuation>0</linear_attenuation>
          <quadratic_attenuation>0.00111109</quadratic_attenuation>
        </point>
      </technique_common>
      <extra>
        <technique profile="blender">
          <type sid="type" type="int">0</type>
          <flag sid="flag" type="int">0</flag>
          <mode sid="mode" type="int">1</mode>
          <gamma sid="blender_gamma" type="float">1</gamma>
          <red sid="red" type="float">1</red>
          <green sid="green" type="float">1</green>
          <blue sid="blue" type="float">1</blue>
          <shadow_r sid="blender_shadow_r" type="float">0</shadow_r>
          <shadow_g sid="blender_shadow_g" type="float">0</shadow_g>
          <shadow_b sid="blender_shadow_b" type="float">0</shadow_b>
          <energy sid="blender_energy" type="float">1000</energy>
          <dist sid="blender_dist" type="float">29.99998</dist>
          <spotsize sid="spotsize" type="float">75</spotsize>
          <spotblend sid="spotblend" type="float">0.15</spotblend>
          <att1 sid="att1" type="float">0</att1>
          <att2 sid="att2" type="float">1</att2>
          <falloff_type sid="falloff_type" type="int">2</falloff_type>
          <clipsta sid="clipsta" type="float">0.04999995</clipsta>
          <clipend sid="clipend" type="float">30.002</clipend>
          <bias sid="bias" type="float">1</bias>
          <soft sid="soft" type="float">3</soft>
          <bufsize sid="bufsize" type="int">2880</bufsize>
          <samp sid="samp" type="int">3</samp>
          <buffers sid="buffers" type="int">1</buffers>
          <area_shape sid="area_shape" type="int">1</area_shape>
          <area_size sid="area_size" type="float">0.1</area_size>
          <area_sizey sid="area_sizey" type="float">0.1</area_sizey>
          <area_sizez sid="area_sizez" type="float">1</area_sizez>
        </technique>
      </extra>
    </light>
  </library_lights>
  <library_images/>
  <library_geometries>
    <geometry id="Cube_001-mesh" name="Cube.001">
      <mesh>
        <source id="Cube_001-mesh-positions">
          <float_array id="Cube_001-mesh-positions-array" count="222">-0.3713636 0.6450085 -0.9225582 -0.3713636 0.6450085 0.9225582 0.3713636 0.6450085 -0.9225583 0.3713636 0.6450085 0.9225583 0.3713635 0.5607935 -1.087977 0.3713635 0.5607935 1.087977 -0.3713636 0.5607936 -1.087977 -0.3713636 0.5607936 1.087977 -0.3713636 0.0794512 0 0.3713636 0.07945108 0 0.3713635 -0.1061705 0 -0.3713636 -0.1061704 0 -0.3713636 0.2320939 0.5410565 0.3713636 0.2320938 0.5410566 0.3713635 0.07384169 0.6380702 -0.3713636 0.07384181 0.6380701 0.3713636 0.2320938 -0.5410566 0.3713635 0.07384169 -0.6380702 -0.3713636 0.07384181 -0.6380701 -0.3713636 0.2320939 -0.5410565 0.3713636 0.1183423 0.2810881 0.3713635 -0.06030595 0.3314883 -0.3713636 -0.06030583 0.3314883 -0.3713636 0.1183423 0.2810881 -0.3713636 0.412159 0.7603727 0.3713636 0.412159 0.7603728 0.3713635 0.2861931 0.8967106 -0.3713636 0.2861933 0.8967105 -0.3713636 0.1183423 -0.2810881 0.3713636 0.1183423 -0.2810881 0.3713635 -0.06030595 -0.3314883 -0.3713636 -0.06030583 -0.3314883 0.3713636 0.412159 -0.7603728 0.3713635 0.2861931 -0.8967106 -0.3713636 0.2861933 -0.8967105 -0.3713636 0.412159 -0.7603727 -0.3713636 0.3145764 -0.6569136 0.3713636 0.3145763 -0.6569137 0.3713635 0.1711135 -0.7747009 -0.3713636 0.1711136 -0.7747008 0.3713636 0.5230004 -0.8494817 0.3713635 0.4169089 -1.001797 -0.3713636 0.4169089 -1.001797 -0.3713636 0.5230004 -0.8494815 0.3713636 0.1662684 -0.4149883 0.3713635 -0.003786563 -0.4893974 -0.3713636 -0.003786444 -0.4893974 -0.3713636 0.1662685 -0.4149883 -0.3713636 0.08922016 -0.1418828 0.3713636 0.08922004 -0.1418829 0.3713635 -0.09465003 -0.1673231 -0.3713636 -0.09464991 -0.167323 0.3713636 0.08922004 0.1418829 0.3713635 -0.09465003 0.1673231 -0.3713636 -0.09464991 0.167323 -0.3713636 0.08922016 0.1418828 -0.3713636 0.1662685 0.4149883 0.3713636 0.1662684 0.4149883 0.3713635 -0.003786563 0.4893974 -0.3713636 -0.003786444 0.4893974 0.3713636 0.3145763 0.6569137 0.3713635 0.1711135 0.7747009 -0.3713636 0.1711136 0.7747008 -0.3713636 0.3145764 0.6569136 -0.3713636 0.5230004 0.8494815 0.3713636 0.5230004 0.8494817 0.3713635 0.4169089 1.001797 -0.3713636 0.4169089 1.001797 0.7636641 0.6720426 0.9358299 -0.763664 0.6720426 0.9358298 0.763664 0.5926749 1.103628 -0.763664 0.592675 1.103628 0 1.446266 0.9806959 0 1.50572 1.156539</float_array>
          <technique_common>
            <accessor source="#Cube_001-mesh-positions-array" count="74" stride="3">
              <param name="X" type="float"/>
              <param name="Y" type="float"/>
              <param name="Z" type="float"/>
            </accessor>
          </technique_common>
        </source>
        <source id="Cube_001-mesh-normals">
          <float_array id="Cube_001-mesh-normals-array" count="348">3.10939e-7 0.5138329 -0.8578904 1 0 2.76128e-7 -0.0765345 -0.888545 -0.4523608 0 -0.5138329 0.8578904 -1 0 0 0 0.8911589 -0.4536916 -1.63243e-7 -0.9976382 -0.06868922 1 0 0 1.61543e-7 0.9976381 0.06868964 -1 -2.39886e-7 0 -1.79432e-7 -0.8864384 0.4628465 1 -2.39886e-7 1.48976e-7 1.21346e-7 0.8864386 -0.4628462 1.42568e-7 0.8146391 0.5799683 1 -2.39886e-7 -1.86674e-7 -1.66897e-7 -0.8146392 -0.5799682 1.55864e-7 0.97881 -0.2047708 1 -4.79773e-7 0 -1.79432e-7 -0.97881 0.2047713 0 -0.727465 0.6861449 1 -2.39887e-7 2.20849e-7 2.10107e-7 0.727465 -0.6861448 1.76337e-7 0.9415088 0.3369883 1 -2.39886e-7 0 -1.59139e-7 -0.941509 -0.3369882 -1.21341e-7 -0.6265614 -0.7793721 1 0 -2.50855e-7 4.23209e-7 0.6265619 0.7793717 -3.58864e-7 -0.7274648 -0.686145 1 -2.82899e-7 -2.20848e-7 0 0.7274644 0.6861454 0 0.5138328 0.8578904 1 0 -2.76128e-7 0 -0.5138329 -0.8578904 -1 2.82899e-7 0 -2.04447e-7 -0.8864384 -0.4628465 1 -2.82899e-7 -1.48976e-7 0 0.8864386 0.4628462 0 0.97881 0.2047706 1 0 0 -1.70916e-7 -0.9788099 -0.2047713 -1.60741e-7 -0.9976382 0.06868922 1 -4.79773e-7 0 1.59806e-7 0.9976381 -0.06868964 0 0.9415088 -0.3369886 1 -2.82899e-7 0 -1.79432e-7 -0.9415089 0.3369883 0 0.8146391 -0.5799683 1 -2.82899e-7 1.86673e-7 -1.19621e-7 -0.8146392 0.5799682 -1 2.82899e-7 0 -1.97689e-7 -0.6265614 0.7793721 1 -2.82899e-7 2.50855e-7 0 0.6265614 -0.7793722 0 0.05785268 -0.9983252 0.09015434 -0.88753 -0.4518438 1.66545e-7 0.4406771 -0.8976657 -5.64894e-7 -0.440683 0.8976629 -0.6855275 0.6581386 0.3112968 0.7430905 0.6339364 -0.2143393 0 -0.05785268 0.9983252 0 0.5138328 -0.8578904 1 0 2.76128e-7 -0.09015446 -0.9002975 -0.4258366 0 -0.5138329 0.8578904 0 0.8911591 -0.4536909 -1.59806e-7 -0.9976381 -0.06868922 1 -4.79773e-7 0 1.59806e-7 0.9976381 0.06868964 -2.04447e-7 -0.8864384 0.4628465 1 -2.82899e-7 1.48976e-7 1.4107e-7 0.8864386 -0.4628463 1.4107e-7 0.8146394 0.5799679 1 -2.82899e-7 -1.86673e-7 -1.19621e-7 -0.8146392 -0.5799682 0 0.97881 -0.2047711 1 0 0 -1.70916e-7 -0.9788099 0.2047713 -3.58864e-7 -0.7274648 0.686145 1 -2.82899e-7 2.20848e-7 0 0.7274644 -0.6861454 0 0.9415088 0.3369886 1 -2.82899e-7 0 -1.79432e-7 -0.9415089 -0.3369883 -3.58863e-7 -0.6265617 -0.7793719 1 -2.82899e-7 -2.50855e-7 0 0.6265614 0.7793722 0 -0.727465 -0.6861449 1 -2.39887e-7 -2.20849e-7 2.10107e-7 0.727465 0.6861448 3.10939e-7 0.5138329 0.8578904 1 0 -2.76128e-7 0 -0.5138329 -0.8578904 -1.79432e-7 -0.8864384 -0.4628465 1 -2.39886e-7 -1.48976e-7 1.4107e-7 0.8864386 0.4628463 1.6752e-7 0.9788099 0.2047711 1 -4.79773e-7 0 -1.79432e-7 -0.97881 -0.2047713 -1.6261e-7 -0.9976381 0.06868922 1 0 0 1.6201e-7 0.9976381 -0.06868964 1.76337e-7 0.9415088 -0.3369883 1 -2.39886e-7 0 -1.59139e-7 -0.941509 0.3369882 2.11604e-7 0.8146394 -0.5799679 1 -2.39886e-7 1.86674e-7 -1.66897e-7 -0.8146392 0.5799682 -2.39242e-7 -0.6265617 0.7793719 1 0 2.50855e-7 4.23209e-7 0.6265619 -0.7793717 0.07653456 -0.9013273 -0.4263234 0 0.440682 -0.8976634 0 -0.4406793 0.8976647 -0.7430905 0.6339359 -0.2143403 0.6855276 0.6581383 0.3112971</float_array>
          <technique_common>
            <accessor source="#Cube_001-mesh-normals-array" count="116" stride="3">
              <param name="X" type="float"/>
              <param name="Y" type="float"/>
              <param name="Z" type="float"/>
            </accessor>
          </technique_common>
        </source>
        <source id="Cube_001-mesh-map-0">
          <float_array id="Cube_001-mesh-map-0-array" count="864">1 1 0.75 0.96875 1 0.96875 0.75 1 0.5 0.96875 0.75 0.96875 0.25 1 0 1 0 1 0.5 1 0.25 0.96875 0.5 0.96875 0.25 0.96875 0 1 0 0.96875 0.99 0.25 0.51 0.25 0.75 0.49 0.25 0.71875 0 0.75 0 0.71875 0.5 0.75 0.25 0.71875 0.5 0.71875 0.75 0.75 0.5 0.71875 0.75 0.71875 1 0.75 0.75 0.71875 1 0.71875 0.25 0.875 0 0.84375 0.25 0.84375 0.5 0.84375 0.25 0.875 0.25 0.84375 0.75 0.84375 0.5 0.875 0.5 0.84375 1 0.875 0.75 0.84375 1 0.84375 1 0.625 0.75 0.59375 1 0.59375 0.75 0.59375 0.5 0.625 0.5 0.59375 0.5 0.625 0.25 0.59375 0.5 0.59375 0.25 0.625 0 0.59375 0.25 0.59375 1 0.8125 0.75 0.78125 1 0.78125 0.75 0.78125 0.5 0.8125 0.5 0.78125 0.5 0.78125 0.25 0.8125 0.25 0.78125 0.25 0.78125 0 0.8125 0 0.78125 0.25 0.90625 0 0.9375 0 0.90625 0.5 0.9375 0.25 0.90625 0.5 0.90625 0.75 0.90625 0.5 0.9375 0.5 0.90625 1 0.9375 0.75 0.90625 1 0.90625 1 0.65625 0.75 0.6875 0.75 0.65625 0.75 0.65625 0.5 0.6875 0.5 0.65625 0.5 0.6875 0.25 0.65625 0.5 0.65625 0.25 0.6875 0 0.65625 0.25 0.65625 0.25 0.5625 0 0.53125 0.25 0.53125 0.5 0.5625 0.25 0.53125 0.5 0.53125 0.75 0.53125 0.5 0.5625 0.5 0.53125 1 0.53125 0.75 0.5625 0.75 0.53125 0.25 0.59375 0 0.5625 0.25 0.5625 0.5 0.5625 0.25 0.59375 0.25 0.5625 0.75 0.59375 0.5 0.5625 0.75 0.5625 1 0.5625 0.75 0.59375 0.75 0.5625 1 0.5 0.75 0.53125 0.75 0.5 0.75 0.5 0.5 0.53125 0.5 0.5 0.5 0.5 0.25 0.53125 0.25 0.5 0.25 0.53125 0 0.5 0.25 0.5 0.25 0.625 0 0.65625 0 0.625 0.5 0.65625 0.25 0.625 0.5 0.625 0.75 0.65625 0.5 0.625 0.75 0.625 1 0.65625 0.75 0.625 1 0.625 1 0.71875 0.75 0.6875 1 0.6875 0.75 0.71875 0.5 0.6875 0.75 0.6875 0.5 0.71875 0.25 0.6875 0.5 0.6875 0.25 0.71875 0 0.6875 0.25 0.6875 0.25 0.78125 0 0.75 0.25 0.75 0.5 0.78125 0.25 0.75 0.5 0.75 0.75 0.75 0.5 0.78125 0.5 0.75 1 0.78125 0.75 0.75 1 0.75 1 0.84375 0.75 0.8125 1 0.8125 0.75 0.84375 0.5 0.8125 0.75 0.8125 0.5 0.8125 0.25 0.84375 0.25 0.8125 0.25 0.8125 0 0.84375 0 0.8125 1 0.90625 0.75 0.875 1 0.875 0.75 0.90625 0.5 0.875 0.75 0.875 0.5 0.875 0.25 0.90625 0.25 0.875 0.25 0.875 0 0.90625 0 0.875 0.25 0.9375 0 0.96875 0 0.9375 0.5 0.96875 0.25 0.9375 0.5 0.9375 0.75 0.96875 0.5 0.9375 0.75 0.9375 1 0.96875 0.75 0.9375 1 0.9375 0.75 1 1 1 0.75 1 0.75 1 0.5 1 0.5 1 1 1 0.75 1 0.75 1 0.5 1 0.25 1 0.25 1 0.25 1 0 1 0 1 0.5 1 0.75 1 0.5 1 0.25 1 0.5 1 0.25 1 1 1 0.75 1 0.75 0.96875 0.75 1 0.5 1 0.5 0.96875 0.25 1 0.25 1 0 1 0.5 1 0.25 1 0.25 0.96875 0.25 0.96875 0.25 1 0 1 0.99 0.25 0.75 0.00999999 0.51 0.25 0.25 0.71875 0.25 0.75 0 0.75 0.5 0.75 0.25 0.75 0.25 0.71875 0.75 0.75 0.5 0.75 0.5 0.71875 1 0.75 0.75 0.75 0.75 0.71875 0.25 0.875 0 0.875 0 0.84375 0.5 0.84375 0.5 0.875 0.25 0.875 0.75 0.84375 0.75 0.875 0.5 0.875 1 0.875 0.75 0.875 0.75 0.84375 1 0.625 0.75 0.625 0.75 0.59375 0.75 0.59375 0.75 0.625 0.5 0.625 0.5 0.625 0.25 0.625 0.25 0.59375 0.25 0.625 0 0.625 0 0.59375 1 0.8125 0.75 0.8125 0.75 0.78125 0.75 0.78125 0.75 0.8125 0.5 0.8125 0.5 0.78125 0.5 0.8125 0.25 0.8125 0.25 0.78125 0.25 0.8125 0 0.8125 0.25 0.90625 0.25 0.9375 0 0.9375 0.5 0.9375 0.25 0.9375 0.25 0.90625 0.75 0.90625 0.75 0.9375 0.5 0.9375 1 0.9375 0.75 0.9375 0.75 0.90625 1 0.65625 1 0.6875 0.75 0.6875 0.75 0.65625 0.75 0.6875 0.5 0.6875 0.5 0.6875 0.25 0.6875 0.25 0.65625 0.25 0.6875 0 0.6875 0 0.65625 0.25 0.5625 0 0.5625 0 0.53125 0.5 0.5625 0.25 0.5625 0.25 0.53125 0.75 0.53125 0.75 0.5625 0.5 0.5625 1 0.53125 1 0.5625 0.75 0.5625 0.25 0.59375 0 0.59375 0 0.5625 0.5 0.5625 0.5 0.59375 0.25 0.59375 0.75 0.59375 0.5 0.59375 0.5 0.5625 1 0.5625 1 0.59375 0.75 0.59375 1 0.5 1 0.53125 0.75 0.53125 0.75 0.5 0.75 0.53125 0.5 0.53125 0.5 0.5 0.5 0.53125 0.25 0.53125 0.25 0.53125 0 0.53125 0 0.5 0.25 0.625 0.25 0.65625 0 0.65625 0.5 0.65625 0.25 0.65625 0.25 0.625 0.75 0.65625 0.5 0.65625 0.5 0.625 1 0.65625 0.75 0.65625 0.75 0.625 1 0.71875 0.75 0.71875 0.75 0.6875 0.75 0.71875 0.5 0.71875 0.5 0.6875 0.5 0.71875 0.25 0.71875 0.25 0.6875 0.25 0.71875 0 0.71875 0 0.6875 0.25 0.78125 0 0.78125 0 0.75 0.5 0.78125 0.25 0.78125 0.25 0.75 0.75 0.75 0.75 0.78125 0.5 0.78125 1 0.78125 0.75 0.78125 0.75 0.75 1 0.84375 0.75 0.84375 0.75 0.8125 0.75 0.84375 0.5 0.84375 0.5 0.8125 0.5 0.8125 0.5 0.84375 0.25 0.84375 0.25 0.8125 0.25 0.84375 0 0.84375 1 0.90625 0.75 0.90625 0.75 0.875 0.75 0.90625 0.5 0.90625 0.5 0.875 0.5 0.875 0.5 0.90625 0.25 0.90625 0.25 0.875 0.25 0.90625 0 0.90625 0.25 0.9375 0.25 0.96875 0 0.96875 0.5 0.96875 0.25 0.96875 0.25 0.9375 0.75 0.96875 0.5 0.96875 0.5 0.9375 1 0.96875 0.75 0.96875 0.75 0.9375 0.75 1 0.75 1 0.5 1 1 1 1 1 0.75 1 0.5 1 0.5 1 0.25 1 0.25 1 0.25 1 0 1 0.5 1 0.75 1 0.75 1</float_array>
          <technique_common>
            <accessor source="#Cube_001-mesh-map-0-array" count="432" stride="2">
              <param name="S" type="float"/>
              <param name="T" type="float"/>
            </accessor>
          </technique_common>
        </source>
        <vertices id="Cube_001-mesh-vertices">
          <input semantic="POSITION" source="#Cube_001-mesh-positions"/>
        </vertices>
        <triangles count="144">
          <input semantic="VERTEX" source="#Cube_001-mesh-vertices" offset="0"/>
          <input semantic="NORMAL" source="#Cube_001-mesh-normals" offset="1"/>
          <input semantic="TEXCOORD" source="#Cube_001-mesh-map-0" offset="2" set="0"/>
          <p>1 0 0 65 0 1 64 0 2 3 1 3 66 1 4 65 1 5 7 2 6 69 2 7 1 2 8 5 3 9 67 3 10 66 3 11 67 4 12 1 4 13 64 4 14 2 5 15 6 5 16 0 5 17 51 4 18 8 4 19 48 4 20 10 6 21 51 6 22 50 6 23 9 7 24 50 7 25 49 7 26 8 8 27 49 8 28 48 8 29 15 9 30 56 9 31 59 9 32 58 10 33 15 10 34 59 10 35 57 11 36 14 11 37 58 11 38 12 12 39 57 12 40 56 12 41 19 13 42 37 13 43 36 13 44 37 14 45 17 14 46 38 14 47 17 15 48 39 15 49 38 15 50 18 4 51 36 4 52 39 4 53 23 16 54 52 16 55 55 16 56 52 17 57 21 17 58 53 17 59 53 18 60 22 18 61 54 18 62 54 4 63 23 4 64 55 4 65 62 4 66 24 4 67 63 4 68 26 19 69 62 19 70 61 19 71 60 20 72 26 20 73 61 20 74 24 21 75 60 21 76 63 21 77 47 22 78 29 22 79 44 22 80 44 23 81 30 23 82 45 23 83 30 24 84 46 24 85 45 24 86 31 4 87 47 4 88 46 4 89 34 4 90 43 4 91 42 4 92 33 25 93 42 25 94 41 25 95 40 26 96 33 26 97 41 26 98 43 27 99 32 27 100 40 27 101 39 4 102 35 4 103 34 4 104 33 28 105 39 28 106 34 28 107 37 29 108 33 29 109 32 29 110 35 30 111 37 30 112 32 30 113 0 31 114 40 31 115 2 31 116 2 32 117 41 32 118 4 32 119 4 33 120 42 33 121 6 33 122 42 4 123 0 4 124 6 4 125 18 34 126 47 34 127 19 34 128 45 35 129 18 35 130 17 35 131 44 36 132 17 36 133 16 36 134 47 37 135 16 37 136 19 37 137 48 38 138 29 38 139 28 38 140 49 39 141 30 39 142 29 39 143 50 40 144 31 40 145 30 40 146 51 4 147 28 4 148 31 4 149 54 4 150 8 4 151 11 4 152 53 41 153 11 41 154 10 41 155 9 42 156 53 42 157 10 42 158 55 43 159 9 43 160 8 43 161 56 44 162 20 44 163 23 44 164 57 45 165 21 45 166 20 45 167 21 46 168 59 46 169 22 46 170 22 4 171 56 4 172 23 4 173 63 47 174 13 47 175 12 47 176 60 48 177 14 48 178 13 48 179 14 49 180 62 49 181 15 49 182 15 4 183 63 4 184 12 4 185 27 50 186 64 50 187 24 50 188 66 51 189 27 51 190 26 51 191 65 52 192 26 52 193 25 52 194 64 53 195 25 53 196 24 53 197 68 54 198 69 54 199 72 54 200 3 55 201 70 55 202 5 55 203 1 56 204 68 56 205 3 56 206 5 57 207 71 57 208 7 57 209 71 58 210 72 58 211 69 58 212 70 59 213 72 59 214 73 59 215 71 60 216 70 60 217 73 60 218 1 61 219 3 61 220 65 61 221 3 62 222 5 62 223 66 62 224 7 63 225 71 63 226 69 63 227 5 64 228 7 64 229 67 64 230 67 4 231 7 4 232 1 4 233 2 65 234 4 65 235 6 65 236 51 4 237 11 4 238 8 4 239 10 66 240 11 66 241 51 66 242 9 67 243 10 67 244 50 67 245 8 68 246 9 68 247 49 68 248 15 34 249 12 34 250 56 34 251 58 69 252 14 69 253 15 69 254 57 70 255 13 70 256 14 70 257 12 71 258 13 71 259 57 71 260 19 72 261 16 72 262 37 72 263 37 73 264 16 73 265 17 73 266 17 74 267 18 74 268 39 74 269 18 4 270 19 4 271 36 4 272 23 75 273 20 75 274 52 75 275 52 76 276 20 76 277 21 76 278 53 77 279 21 77 280 22 77 281 54 4 282 22 4 283 23 4 284 62 4 285 27 4 286 24 4 287 26 78 288 27 78 289 62 78 290 60 79 291 25 79 292 26 79 293 24 80 294 25 80 295 60 80 296 47 81 297 28 81 298 29 81 299 44 82 300 29 82 301 30 82 302 30 83 303 31 83 304 46 83 305 31 4 306 28 4 307 47 4 308 34 50 309 35 50 310 43 50 311 33 84 312 34 84 313 42 84 314 40 85 315 32 85 316 33 85 317 43 86 318 35 86 319 32 86 320 39 4 321 36 4 322 35 4 323 33 87 324 38 87 325 39 87 326 37 88 327 38 88 328 33 88 329 35 89 330 36 89 331 37 89 332 0 90 333 43 90 334 40 90 335 2 91 336 40 91 337 41 91 338 4 92 339 41 92 340 42 92 341 42 4 342 43 4 343 0 4 344 18 9 345 46 9 346 47 9 347 45 93 348 46 93 349 18 93 350 44 94 351 45 94 352 17 94 353 47 95 354 44 95 355 16 95 356 48 96 357 49 96 358 29 96 359 49 97 360 50 97 361 30 97 362 50 98 363 51 98 364 31 98 365 51 4 366 48 4 367 28 4 368 54 4 369 55 4 370 8 4 371 53 99 372 54 99 373 11 99 374 9 100 375 52 100 376 53 100 377 55 101 378 52 101 379 9 101 380 56 102 381 57 102 382 20 102 383 57 103 384 58 103 385 21 103 386 21 104 387 58 104 388 59 104 389 22 4 390 59 4 391 56 4 392 63 105 393 60 105 394 13 105 395 60 106 396 61 106 397 14 106 398 14 107 399 61 107 400 62 107 401 15 4 402 62 4 403 63 4 404 27 4 405 67 4 406 64 4 407 66 108 408 67 108 409 27 108 410 65 109 411 66 109 412 26 109 413 64 110 414 65 110 415 25 110 416 3 111 417 68 111 418 70 111 419 1 112 420 69 112 421 68 112 422 5 113 423 70 113 424 71 113 425 71 114 426 73 114 427 72 114 428 70 115 429 68 115 430 72 115 431</p>
        </triangles>
      </mesh>
    </geometry>
  </library_geometries>
  <library_visual_scenes>
    <visual_scene id="Scene" name="Scene">
      <node id="Cube" name="Cube" type="NODE">
        <matrix sid="transform">1 0 0 0 0 1 0 0 0 0 1 0 0 0 0 1</matrix>
        <instance_geometry url="#Cube_001-mesh" name="Cube"/>
      </node>
      <node id="Camera" name="Camera" type="NODE">
        <matrix sid="transform">0.6859207 -0.3240135 0.6515582 7.358891 0.7276763 0.3054208 -0.6141704 -6.925791 0 0.8953956 0.4452714 4.958309 0 0 0 1</matrix>
        <instance_camera url="#Camera-camera"/>
      </node>
      <node id="Light" name="Light" type="NODE">
        <matrix sid="transform">-0.2908646 -0.7711008 0.5663932 4.076245 0.9551712 -0.1998834 0.2183912 1.005454 -0.05518906 0.6045247 0.7946723 5.903862 0 0 0 1</matrix>
        <instance_light url="#Light-light"/>
      </node>
    </visual_scene>
  </library_visual_scenes>
  <scene>
    <instance_visual_scene url="#Scene"/>
  </scene>
</COLLADA>