%YAML 1.1
%TAG !u! tag:unity3d.com,2011:
--- !u!114 &11400000
MonoBehaviour:
  m_ObjectHideFlags: 0
  m_CorrespondingSourceObject: {fileID: 0}
  m_PrefabInstance: {fileID: 0}
  m_PrefabAsset: {fileID: 0}
  m_GameObject: {fileID: 0}
  m_Enabled: 1
  m_EditorHideFlags: 0
  m_Script: {fileID: 11500000, guid: 622396f3fd9749438258ec6593748e9d, type: 3}
  m_Name: Delete
  m_EditorClassIdentifier: 
  displayName: Delete
  image: {fileID: 21300000, guid: 9210b43b6d7da424188bef23dfbd6d7a, type: 3}
  toolEnd: {fileID: 249107540023497658, guid: d694b990c4017004e870f3cdeeb01b4f, type: 3}
  startAction:
    m_PersistentCalls:
      m_Calls:
      - m_Target: {fileID: 11400000, guid: bcc67b2b2d832e442be7a369e71d0310, type: 2}
        m_MethodName: StartDeleteAction
        m_Mode: 1
        m_Arguments:
          m_ObjectArgument: {fileID: 0}
          m_ObjectArgumentAssemblyTypeName: UnityEngine.Object, UnityEngine
          m_IntArgument: 0
          m_FloatArgument: 0
          m_StringArgument: 
          m_BoolArgument: 0
        m_CallState: 2
    m_TypeName: NarupaBuilder.Tools.Tool+StartActionEvent, NarupaBuilder, Version=0.0.0.0,
      Culture=neutral, PublicKeyToken=null
