%YAML 1.1
%TAG !u! tag:unity3d.com,2011:
--- !u!1001 &4542590158974943096
PrefabInstance:
  m_ObjectHideFlags: 0
  serializedVersion: 2
  m_Modification:
    m_TransformParent: {fileID: 0}
    m_Modifications:
    - target: {fileID: 1286741119908508900, guid: d41b51e57ee1b3d4e892802bc7898cf3,
        type: 3}
      propertyPath: m_Name
      value: Radial Button
      objectReference: {fileID: 0}
    - target: {fileID: 1286741119908508901, guid: d41b51e57ee1b3d4e892802bc7898cf3,
        type: 3}
      propertyPath: m_LocalPosition.x
      value: 0
      objectReference: {fileID: 0}
    - target: {fileID: 1286741119908508901, guid: d41b51e57ee1b3d4e892802bc7898cf3,
        type: 3}
      propertyPath: m_LocalPosition.y
      value: 0
      objectReference: {fileID: 0}
    - target: {fileID: 1286741119908508901, guid: d41b51e57ee1b3d4e892802bc7898cf3,
        type: 3}
      propertyPath: m_LocalPosition.z
      value: 0
      objectReference: {fileID: 0}
    - target: {fileID: 1286741119908508901, guid: d41b51e57ee1b3d4e892802bc7898cf3,
        type: 3}
      propertyPath: m_LocalRotation.x
      value: 0
      objectReference: {fileID: 0}
    - target: {fileID: 1286741119908508901, guid: d41b51e57ee1b3d4e892802bc7898cf3,
        type: 3}
      propertyPath: m_LocalRotation.y
      value: 0
      objectReference: {fileID: 0}
    - target: {fileID: 1286741119908508901, guid: d41b51e57ee1b3d4e892802bc7898cf3,
        type: 3}
      propertyPath: m_LocalRotation.z
      value: 0
      objectReference: {fileID: 0}
    - target: {fileID: 1286741119908508901, guid: d41b51e57ee1b3d4e892802bc7898cf3,
        type: 3}
      propertyPath: m_LocalRotation.w
      value: 1
      objectReference: {fileID: 0}
    - target: {fileID: 1286741119908508901, guid: d41b51e57ee1b3d4e892802bc7898cf3,
        type: 3}
      propertyPath: m_RootOrder
      value: 0
      objectReference: {fileID: 0}
    - target: {fileID: 1286741119908508901, guid: d41b51e57ee1b3d4e892802bc7898cf3,
        type: 3}
      propertyPath: m_LocalEulerAnglesHint.x
      value: 0
      objectReference: {fileID: 0}
    - target: {fileID: 1286741119908508901, guid: d41b51e57ee1b3d4e892802bc7898cf3,
        type: 3}
      propertyPath: m_LocalEulerAnglesHint.y
      value: 0
      objectReference: {fileID: 0}
    - target: {fileID: 1286741119908508901, guid: d41b51e57ee1b3d4e892802bc7898cf3,
        type: 3}
      propertyPath: m_LocalEulerAnglesHint.z
      value: 0
      objectReference: {fileID: 0}
    - target: {fileID: 1286741119908508901, guid: d41b51e57ee1b3d4e892802bc7898cf3,
        type: 3}
      propertyPath: m_AnchoredPosition.x
      value: 0
      objectReference: {fileID: 0}
    - target: {fileID: 1286741119908508901, guid: d41b51e57ee1b3d4e892802bc7898cf3,
        type: 3}
      propertyPath: m_AnchoredPosition.y
      value: 0
      objectReference: {fileID: 0}
    - target: {fileID: 1286741119908508901, guid: d41b51e57ee1b3d4e892802bc7898cf3,
        type: 3}
      propertyPath: m_SizeDelta.x
      value: 0
      objectReference: {fileID: 0}
    - target: {fileID: 1286741119908508901, guid: d41b51e57ee1b3d4e892802bc7898cf3,
        type: 3}
      propertyPath: m_SizeDelta.y
      value: 0
      objectReference: {fileID: 0}
    - target: {fileID: 1286741119908508901, guid: d41b51e57ee1b3d4e892802bc7898cf3,
        type: 3}
      propertyPath: m_AnchorMin.x
      value: 0
      objectReference: {fileID: 0}
    - target: {fileID: 1286741119908508901, guid: d41b51e57ee1b3d4e892802bc7898cf3,
        type: 3}
      propertyPath: m_AnchorMin.y
      value: 0
      objectReference: {fileID: 0}
    - target: {fileID: 1286741119908508901, guid: d41b51e57ee1b3d4e892802bc7898cf3,
        type: 3}
      propertyPath: m_AnchorMax.x
      value: 1
      objectReference: {fileID: 0}
    - target: {fileID: 1286741119908508901, guid: d41b51e57ee1b3d4e892802bc7898cf3,
        type: 3}
      propertyPath: m_AnchorMax.y
      value: 1
      objectReference: {fileID: 0}
    - target: {fileID: 1286741119908508901, guid: d41b51e57ee1b3d4e892802bc7898cf3,
        type: 3}
      propertyPath: m_Pivot.x
      value: 0.5
      objectReference: {fileID: 0}
    - target: {fileID: 1286741119908508901, guid: d41b51e57ee1b3d4e892802bc7898cf3,
        type: 3}
      propertyPath: m_Pivot.y
      value: 0.5
      objectReference: {fileID: 0}
    m_RemovedComponents: []
  m_SourcePrefab: {fileID: 100100000, guid: d41b51e57ee1b3d4e892802bc7898cf3, type: 3}
